…
*   checking Rd cross-references ... NOTE
    ```
    Package unavailable to check Rd xrefs: ‘NbClust’
    ```

# fastqcr

Version: 0.1.0

## Newly broken

*   checking examples ... ERROR
    ```
    ...
    # A tibble: 60 x 7
       sample module                       status tot.seq  seq.length pct.gc pct.d…
     * <chr>  <chr>                        <chr>  <chr>    <chr>       <dbl>  <dbl>
     1 S1     Basic Statistics             PASS   50299587 35-76        48.0   17.2
     2 S1     Per base sequence quality    PASS   50299587 35-76        48.0   17.2
     3 S1     Per tile sequence quality    PASS   50299587 35-76        48.0   17.2
     4 S1     Per sequence quality scores  PASS   50299587 35-76        48.0   17.2
     5 S1     Per base sequence content    FAIL   50299587 35-76        48.0   17.2
     6 S1     Per sequence GC content      WARN   50299587 35-76        48.0   17.2
     7 S1     Per base N content           PASS   50299587 35-76        48.0   17.2
     8 S1     Sequence Length Distribution WARN   50299587 35-76        48.0   17.2
     9 S1     Sequence Duplication Levels  PASS   50299587 35-76        48.0   17.2
    10 S1     Overrepresented sequences    PASS   50299587 35-76        48.0   17.2
    # ... with 50 more rows
…
