Pivotting • tidyr
…
The first argument describes which columns this transformation applies to. In this case, it’s every column apart from the first.

The cell_val gives the name of the variable stored in the cells. In this the case the values are measurements of counts.

The col_name gives the name of the variable stored in the column names. In this case, it’s an income range.

We can now achieve the desired reshaping by pivot pew with this spec:

pew %>% pivot(spec)
#> # A tibble: 180 x 3
#>    religion income             count
#>    <chr>    <chr>              <dbl>
#>  1 Agnostic <$10k                 27
#>  2 Agnostic $10-20k               12
#>  3 Agnostic $20-30k               27
#>  4 Agnostic $30-40k              418
#>  5 Agnostic $40-50k               15
#>  6 Agnostic $50-75k              575
#>  7 Agnostic $75-100k               1
#>  8 Agnostic $100-150k            228
#>  9 Agnostic >150k                 20
#> 10 Agnostic Don't know/refused    19
#> # … with 170 more rows

Billboard

Similar to pew, but the variable encoded in the columns is not a string, and requires some additional manipulation to extract:

billboard <- read_csv("billboard.csv", col_types = list()) %>%
  mutate_at(vars(starts_with("wk")), as.numeric)
billboard
#> # A tibble: 317 x 81
#>     year artist track time  date.entered   wk1   wk2   wk3   wk4   wk5
#>    <dbl> <chr>  <chr> <tim> <date>       <dbl> <dbl> <dbl> <dbl> <dbl>
#>  1  2000 2 Pac  Baby… 04:22 2000-02-26      87    82    72    77    87
#>  2  2000 2Ge+h… The … 03:15 2000-09-02      91    87    92    NA    NA
#>  3  2000 3 Doo… Kryp… 03:53 2000-04-08      81    70    68    67    66
#>  4  2000 3 Doo… Loser 04:24 2000-10-21      76    76    72    69    67
#>  5  2000 504 B… Wobb… 03:35 2000-04-15      57    34    25    17    17
#>  6  2000 98^0   Give… 03:24 2000-08-19      51    39    34    26    26
#>  7  2000 A*Tee… Danc… 03:44 2000-07-08      97    97    96    95   100
#>  8  2000 Aaliy… I Do… 04:15 2000-01-29      84    62    51    41    38
#>  9  2000 Aaliy… Try … 04:03 2000-03-18      59    53    38    28    21
#> 10  2000 Adams… Open… 05:30 2000-08-26      76    76    74    69    68
#> # … with 307 more rows, and 71 more variables: wk6 <dbl>, wk7 <dbl>,
#> #   wk8 <dbl>, wk9 <dbl>, wk10 <dbl>, wk11 <dbl>, wk12 <dbl>, wk13 <dbl>,
#> #   wk14 <dbl>, wk15 <dbl>, wk16 <dbl>, wk17 <dbl>, wk18 <dbl>,
#> #   wk19 <dbl>, wk20 <dbl>, wk21 <dbl>, wk22 <dbl>, wk23 <dbl>,
#> #   wk24 <dbl>, wk25 <dbl>, wk26 <dbl>, wk27 <dbl>, wk28 <dbl>,
#> #   wk29 <dbl>, wk30 <dbl>, wk31 <dbl>, wk32 <dbl>, wk33 <dbl>,
#> #   wk34 <dbl>, wk35 <dbl>, wk36 <dbl>, wk37 <dbl>, wk38 <dbl>,
#> #   wk39 <dbl>, wk40 <dbl>, wk41 <dbl>, wk42 <dbl>, wk43 <dbl>,
#> #   wk44 <dbl>, wk45 <dbl>, wk46 <dbl>, wk47 <dbl>, wk48 <dbl>,
#> #   wk49 <dbl>, wk50 <dbl>, wk51 <dbl>, wk52 <dbl>, wk53 <dbl>,
#> #   wk54 <dbl>, wk55 <dbl>, wk56 <dbl>, wk57 <dbl>, wk58 <dbl>,
#> #   wk59 <dbl>, wk60 <dbl>, wk61 <dbl>, wk62 <dbl>, wk63 <dbl>,
#> #   wk64 <dbl>, wk65 <dbl>, wk66 <dbl>, wk67 <dbl>, wk68 <dbl>,
#> #   wk69 <dbl>, wk70 <dbl>, wk71 <dbl>, wk72 <dbl>, wk73 <dbl>,
#> #   wk74 <dbl>, wk75 <dbl>, wk76 <dbl>

billboard %>% pivot_spec_long(starts_with("wk"), "rank", "week")
#> # A tibble: 76 x 3
#>    col_name measure week 
#>    <chr>    <chr>   <chr>
#>  1 wk1      rank    wk1  
#>  2 wk2      rank    wk2  
#>  3 wk3      rank    wk3  
#>  4 wk4      rank    wk4  
#>  5 wk5      rank    wk5  
#>  6 wk6      rank    wk6  
#>  7 wk7      rank    wk7  
#>  8 wk8      rank    wk8  
#>  9 wk9      rank    wk9  
#> 10 wk10     rank    wk10 
#> # … with 66 more rows

spec <- billboard %>%
  pivot_spec_long(starts_with("wk"), "rank", "week") %>%
  mutate(week = parse_number(week))
spec
#> # A tibble: 76 x 3
#>    col_name measure  week
#>    <chr>    <chr>   <dbl>
#>  1 wk1      rank        1
#>  2 wk2      rank        2
#>  3 wk3      rank        3
#>  4 wk4      rank        4
#>  5 wk5      rank        5
#>  6 wk6      rank        6
#>  7 wk7      rank        7
#>  8 wk8      rank        8
#>  9 wk9      rank        9
#> 10 wk10     rank       10
#> # … with 66 more rows

billboard %>% pivot(spec)
#> # A tibble: 24,092 x 7
#>     year artist track                   time   date.entered  week  rank
#>    <dbl> <chr>  <chr>                   <time> <date>       <dbl> <dbl>
#>  1  2000 2 Pac  Baby Don't Cry (Keep... 04:22  2000-02-26       1    87
#>  2  2000 2 Pac  Baby Don't Cry (Keep... 04:22  2000-02-26       2    91
#>  3  2000 2 Pac  Baby Don't Cry (Keep... 04:22  2000-02-26       3    81
#>  4  2000 2 Pac  Baby Don't Cry (Keep... 04:22  2000-02-26       4    76
#>  5  2000 2 Pac  Baby Don't Cry (Keep... 04:22  2000-02-26       5    57
#>  6  2000 2 Pac  Baby Don't Cry (Keep... 04:22  2000-02-26       6    51
#>  7  2000 2 Pac  Baby Don't Cry (Keep... 04:22  2000-02-26       7    97
#>  8  2000 2 Pac  Baby Don't Cry (Keep... 04:22  2000-02-26       8    84
#>  9  2000 2 Pac  Baby Don't Cry (Keep... 04:22  2000-02-26       9    59
#> 10  2000 2 Pac  Baby Don't Cry (Keep... 04:22  2000-02-26      10    76
#> # … with 24,082 more rows

WHO tuberculosis data

In more complex cases, the column name might encode multiple variables, and require significant parsing to extract.

who
#> # A tibble: 7,240 x 60
#>    country iso2  iso3   year new_sp_m014 new_sp_m1524 new_sp_m2534
#>    <chr>   <chr> <chr> <int>       <int>        <int>        <int>
#>  1 Afghan… AF    AFG    1980          NA           NA           NA
#>  2 Afghan… AF    AFG    1981          NA           NA           NA
#>  3 Afghan… AF    AFG    1982          NA           NA           NA
#>  4 Afghan… AF    AFG    1983          NA           NA           NA
#>  5 Afghan… AF    AFG    1984          NA           NA           NA
#>  6 Afghan… AF    AFG    1985          NA           NA           NA
#>  7 Afghan… AF    AFG    1986          NA           NA           NA
#>  8 Afghan… AF    AFG    1987          NA           NA           NA
#>  9 Afghan… AF    AFG    1988          NA           NA           NA
#> 10 Afghan… AF    AFG    1989          NA           NA           NA
#> # … with 7,230 more rows, and 53 more variables: new_sp_m3544 <int>,
#> #   new_sp_m4554 <int>, new_sp_m5564 <int>, new_sp_m65 <int>,
#> #   new_sp_f014 <int>, new_sp_f1524 <int>, new_sp_f2534 <int>,
#> #   new_sp_f3544 <int>, new_sp_f4554 <int>, new_sp_f5564 <int>,
#> #   new_sp_f65 <int>, new_sn_m014 <int>, new_sn_m1524 <int>,
#> #   new_sn_m2534 <int>, new_sn_m3544 <int>, new_sn_m4554 <int>,
#> #   new_sn_m5564 <int>, new_sn_m65 <int>, new_sn_f014 <int>,
#> #   new_sn_f1524 <int>, new_sn_f2534 <int>, new_sn_f3544 <int>,
#> #   new_sn_f4554 <int>, new_sn_f5564 <int>, new_sn_f65 <int>,
#> #   new_ep_m014 <int>, new_ep_m1524 <int>, new_ep_m2534 <int>,
#> #   new_ep_m3544 <int>, new_ep_m4554 <int>, new_ep_m5564 <int>,
#> #   new_ep_m65 <int>, new_ep_f014 <int>, new_ep_f1524 <int>,
#> #   new_ep_f2534 <int>, new_ep_f3544 <int>, new_ep_f4554 <int>,
#> #   new_ep_f5564 <int>, new_ep_f65 <int>, newrel_m014 <int>,
#> #   newrel_m1524 <int>, newrel_m2534 <int>, newrel_m3544 <int>,
#> #   newrel_m4554 <int>, newrel_m5564 <int>, newrel_m65 <int>,
#> #   newrel_f014 <int>, newrel_f1524 <int>, newrel_f2534 <int>,
#> #   newrel_f3544 <int>, newrel_f4554 <int>, newrel_f5564 <int>,
#> #   newrel_f65 <int>

who %>% pivot_spec_long(new_sp_m014:newrel_f65)
#> # A tibble: 56 x 3
#>    col_name     measure variable    
#>    <chr>        <chr>   <chr>       
#>  1 new_sp_m014  value   new_sp_m014 
#>  2 new_sp_m1524 value   new_sp_m1524
#>  3 new_sp_m2534 value   new_sp_m2534
#>  4 new_sp_m3544 value   new_sp_m3544
#>  5 new_sp_m4554 value   new_sp_m4554
#>  6 new_sp_m5564 value   new_sp_m5564
#>  7 new_sp_m65   value   new_sp_m65  
#>  8 new_sp_f014  value   new_sp_f014 
#>  9 new_sp_f1524 value   new_sp_f1524
#> 10 new_sp_f2534 value   new_sp_f2534
#> # … with 46 more rows

spec <- who %>%
  pivot_spec_long(new_sp_m014:newrel_f65, "count") %>%
  extract(variable, c("diagnosis", "gender", "age"), "new_?(.*)_(.)(.*)") %>%
  mutate(age = factor(age, levels = unique(age), ordered = TRUE))
spec
#> # A tibble: 56 x 5
#>    col_name     measure diagnosis gender age  
#>    <chr>        <chr>   <chr>     <chr>  <ord>
#>  1 new_sp_m014  count   sp        m      014  
#>  2 new_sp_m1524 count   sp        m      1524 
#>  3 new_sp_m2534 count   sp        m      2534 
#>  4 new_sp_m3544 count   sp        m      3544 
#>  5 new_sp_m4554 count   sp        m      4554 
#>  6 new_sp_m5564 count   sp        m      5564 
#>  7 new_sp_m65   count   sp        m      65   
#>  8 new_sp_f014  count   sp        f      014  
#>  9 new_sp_f1524 count   sp        f      1524 
#> 10 new_sp_f2534 count   sp        f      2534 
#> # … with 46 more rows

who %>% pivot(spec, na.rm = TRUE)
#> # A tibble: 76,046 x 8
#>    country     iso2  iso3   year diagnosis gender age   count
#>    <chr>       <chr> <chr> <int> <chr>     <chr>  <ord> <int>
#>  1 Afghanistan AF    AFG    1980 sn        m      3544      0
#>  2 Afghanistan AF    AFG    1980 sn        m      4554     30
#>  3 Afghanistan AF    AFG    1980 sn        m      5564      8
#>  4 Afghanistan AF    AFG    1980 sn        m      65       52
#>  5 Afghanistan AF    AFG    1980 sn        f      014     129
#>  6 Afghanistan AF    AFG    1980 sn        f      1524     90
#>  7 Afghanistan AF    AFG    1980 sn        f      2534    127
#>  8 Afghanistan AF    AFG    1980 sn        f      3544    139
#>  9 Afghanistan AF    AFG    1980 sn        f      4554    151
#> 10 Afghanistan AF    AFG    1980 sn        f      5564    193
#> # … with 76,036 more rows
…
construction %>% pivot(spec)
#> # A tibble: 80 x 5
#>     Year Month    units region        n
#>    <dbl> <chr>    <chr> <chr>     <dbl>
#>  1  2017 December total <NA>       1197
#>  2  2017 December 1     <NA>       1218
#>  3  2017 December 2-4   <NA>       1289
#>  4  2017 December 5+    <NA>       1229
#>  5  2017 December <NA>  Northeast  1257
#>  6  2017 December <NA>  Midwest    1251
#>  7  2017 December <NA>  South      1216
#>  8  2017 December <NA>  West       1195
#>  9  2018 January  total <NA>       1230
#> 10  2018 January  1     <NA>       1148
#> # … with 70 more rows
…
Multiple transformations

Weather data

# need to pivot in both directions

weather <- read_csv("weather.csv", col_types = list()) 

weather %>% pivot_spec_long(d1:d31, "temp", "day")
#> # A tibble: 31 x 3
#>    col_name measure day  
#>    <chr>    <chr>   <chr>
#>  1 d1       temp    d1   
#>  2 d2       temp    d2   
#>  3 d3       temp    d3   
#>  4 d4       temp    d4   
#>  5 d5       temp    d5   
#>  6 d6       temp    d6   
#>  7 d7       temp    d7   
#>  8 d8       temp    d8   
#>  9 d9       temp    d9   
#> 10 d10      temp    d10  
#> # … with 21 more rows

weather_spec <- weather %>%
  pivot_spec_long(d1:d31, "temp", "day") %>%
  mutate(day = parse_number(day))
weather_spec
#> # A tibble: 31 x 3
#>    col_name measure   day
#>    <chr>    <chr>   <dbl>
#>  1 d1       temp        1
#>  2 d2       temp        2
#>  3 d3       temp        3
#>  4 d4       temp        4
#>  5 d5       temp        5
#>  6 d6       temp        6
#>  7 d7       temp        7
#>  8 d8       temp        8
#>  9 d9       temp        9
#> 10 d10      temp       10
#> # … with 21 more rows
weather2 <- pivot(weather, weather_spec, na.rm = TRUE)
weather2
#> # A tibble: 66 x 6
#>    id       year month element   day  temp
#>    <chr>   <dbl> <dbl> <chr>   <dbl> <dbl>
#>  1 MX17004  2010     1 tmax       21  29.9
#>  2 MX17004  2010     1 tmax       22  13.8
#>  3 MX17004  2010     1 tmax       25  27.3
#>  4 MX17004  2010     1 tmax       26  14.4
#>  5 MX17004  2010     1 tmin       10  31.3
#>  6 MX17004  2010     1 tmin       11  16.3
#>  7 MX17004  2010     1 tmin       16  24.1
#>  8 MX17004  2010     1 tmin       17  14.4
#>  9 MX17004  2010     1 tmin       26  28.6
#> 10 MX17004  2010     1 tmin       27  17.5
#> # … with 56 more rows

spec2 <- weather2 %>% pivot_spec_wide(element, temp)
spec2
#> # A tibble: 2 x 3
#>   col_name measure element
#>   <chr>    <chr>   <chr>  
#> 1 tmax     temp    tmax   
#> 2 tmin     temp    tmin
weather2 %>% pivot(spec2)
#> # A tibble: 63 x 6
#>    id       year month   day  tmax  tmin
#>    <chr>   <dbl> <dbl> <dbl> <dbl> <dbl>
#>  1 MX17004  2010     1    21  29.9  NA  
#>  2 MX17004  2010     1    22  13.8  NA  
#>  3 MX17004  2010     1    25  27.3  NA  
#>  4 MX17004  2010     1    26  14.4  28.6
#>  5 MX17004  2010     1    10  NA    31.3
#>  6 MX17004  2010     1    11  NA    16.3
#>  7 MX17004  2010     1    16  NA    24.1
#>  8 MX17004  2010     1    17  NA    14.4
#>  9 MX17004  2010     1    27  NA    17.5
#> 10 MX17004  2010     2    23  27.2  NA  
#> # … with 53 more rows
…
