Rectangling • tidyr
…
But in this case each element is an unnamed list, representing the repos for each user. So we need to peel back another layer:

repos %>% unnest_longer(user, values_to = "repo")
#> # A tibble: 176 x 2
#>    repo        index
#>    <list>      <int>
#>  1 <list [68]>     1
#>  2 <list [68]>     2
#>  3 <list [68]>     3
#>  4 <list [68]>     4
#>  5 <list [68]>     5
#>  6 <list [68]>     6
#>  7 <list [68]>     7
#>  8 <list [68]>     8
#>  9 <list [68]>     9
#> 10 <list [68]>    10
#> # … with 166 more rows

repos <- repos %>% unnest_longer(user, values_to = "repo", indices_to = NULL)
repos
#> # A tibble: 176 x 1
#>    repo       
#>    <list>     
#>  1 <list [68]>
#>  2 <list [68]>
#>  3 <list [68]>
#>  4 <list [68]>
#>  5 <list [68]>
#>  6 <list [68]>
#>  7 <list [68]>
#>  8 <list [68]>
#>  9 <list [68]>
#> 10 <list [68]>
#> # … with 166 more rows

Then we can use hoist():

repos %>% hoist(repo, 
  login = c("owner", "login"), 
  name = "name",
  homepage = "homepage",
  watchers = "watchers_count"
)
#> # A tibble: 176 x 5
#>    login       name        homepage watchers repo       
#>    <chr>       <chr>       <chr>       <int> <list>     
#>  1 gaborcsardi after       <NA>            5 <list [65]>
#>  2 gaborcsardi argufy      <NA>           19 <list [65]>
#>  3 gaborcsardi ask         <NA>            5 <list [65]>
#>  4 gaborcsardi baseimports <NA>            0 <list [65]>
#>  5 gaborcsardi citest      <NA>            0 <list [65]>
#>  6 gaborcsardi clisymbols  ""             18 <list [65]>
#>  7 gaborcsardi cmaker      <NA>            0 <list [65]>
#>  8 gaborcsardi cmark       <NA>            0 <list [65]>
#>  9 gaborcsardi conditions  <NA>            0 <list [65]>
#> 10 gaborcsardi crayon      <NA>           52 <list [65]>
#> # … with 166 more rows

Game of Thrones Characters

Extacting the Game of Thrones characters works in a similar fashion:

chars <- tibble(char = got_chars)

chars %>% unnest_wider(char)
#> # A tibble: 30 x 18
#>    url      id name  gender culture born  died  alive titles aliases father
#>    <chr> <int> <chr> <chr>  <chr>   <chr> <chr> <lgl> <list> <list>  <chr> 
#>  1 http…  1022 Theo… Male   Ironbo… In 2… ""    TRUE  <chr … <chr [… ""    
#>  2 http…  1052 Tyri… Male   ""      In 2… ""    TRUE  <chr … <chr [… ""    
#>  3 http…  1074 Vict… Male   Ironbo… In 2… ""    TRUE  <chr … <chr [… ""    
#>  4 http…  1109 Will  Male   ""      ""    In 2… FALSE <chr … <chr [… ""    
#>  5 http…  1166 Areo… Male   Norvos… In 2… ""    TRUE  <chr … <chr [… ""    
#>  6 http…  1267 Chett Male   ""      At H… In 2… FALSE <chr … <chr [… ""    
#>  7 http…  1295 Cres… Male   ""      In 2… In 2… FALSE <chr … <chr [… ""    
#>  8 http…   130 Aria… Female Dornish In 2… ""    TRUE  <chr … <chr [… ""    
#>  9 http…  1303 Daen… Female Valyri… In 2… ""    TRUE  <chr … <chr [… ""    
#> 10 http…  1319 Davo… Male   Wester… In 2… ""    TRUE  <chr … <chr [… ""    
#> # … with 20 more rows, and 7 more variables: mother <chr>, spouse <chr>,
#> #   allegiances <list>, books <list>, povBooks <list>, tvSeries <list>,
#> #   playedBy <list>

chars %>% 
  hoist(char, name = "name", gender = "gender", titles = "titles")
#> # A tibble: 30 x 4
#>    name               gender titles    char       
#>    <chr>              <chr>  <list>    <list>     
#>  1 Theon Greyjoy      Male   <chr [3]> <list [15]>
#>  2 Tyrion Lannister   Male   <chr [2]> <list [15]>
#>  3 Victarion Greyjoy  Male   <chr [2]> <list [15]>
#>  4 Will               Male   <chr [1]> <list [15]>
#>  5 Areo Hotah         Male   <chr [1]> <list [15]>
#>  6 Chett              Male   <chr [1]> <list [15]>
#>  7 Cressen            Male   <chr [1]> <list [15]>
#>  8 Arianne Martell    Female <chr [1]> <list [15]>
#>  9 Daenerys Targaryen Female <chr [5]> <list [15]>
#> 10 Davos Seaworth     Male   <chr [4]> <list [15]>
#> # … with 20 more rows

Each character can have one or more titles. One way to record this sort of information as a flat file would be to extract it out into it’s own table. We can do that by selecting just the name and the title, and using unnest_longer() to flatten:

chars %>% 
  hoist(char, name = "name", titles = "titles") %>% 
  select(name, titles) %>% 
  unnest_longer(titles, values_to = "title", indices_to = NULL)
#> # A tibble: 60 x 2
#>    name              title                                               
#>    <chr>             <chr>                                               
#>  1 Theon Greyjoy     Prince of Winterfell                                
#>  2 Theon Greyjoy     Captain of Sea Bitch                                
#>  3 Theon Greyjoy     Lord of the Iron Islands (by law of the green lands)
#>  4 Tyrion Lannister  Acting Hand of the King (former)                    
#>  5 Tyrion Lannister  Master of Coin (former)                             
#>  6 Victarion Greyjoy Lord Captain of the Iron Fleet                      
#>  7 Victarion Greyjoy Master of the Iron Victory                          
#>  8 Will              ""                                                  
#>  9 Areo Hotah        Captain of the Guard at Sunspear                    
#> 10 Chett             ""                                                  
#> # … with 50 more rows

Shara’s discography

discog <- tibble(disc = discog)

discog <- discog %>% 
  unnest_wider(disc) %>% 
  dplyr::mutate(date_added = as.POSIXct(strptime(date_added, "%Y-%m-%dT%H:%M:%S"))) 

discog %>% 
  hoist(basic_information, title = "title", label = "labels", artist = list("artists", 1, "name"))
#> # A tibble: 155 x 8
#>    instance_id date_added          title label artist basic_informati…
#>          <int> <dttm>              <chr> <lis> <chr>  <list>          
#>  1   354823933 2019-02-16 17:48:59 Demo  <lis… Mollot <list [9]>      
#>  2   354092601 2019-02-13 14:13:11 Obse… <lis… Una B… <list [9]>      
#>  3   354091476 2019-02-13 14:07:23 I     <lis… S.H.I… <list [9]>      
#>  4   351244906 2019-02-02 11:39:58 Oído… <lis… Rata … <list [9]>      
#>  5   351244801 2019-02-02 11:39:37 A Ca… <lis… Ivy (… <list [9]>      
#>  6   351052065 2019-02-01 20:40:53 Tash… <lis… Tashme <list [9]>      
#>  7   350315345 2019-01-29 15:48:37 Demo  <lis… Desgr… <list [9]>      
#>  8   350315103 2019-01-29 15:47:22 Let … <lis… Phant… <list [9]>      
#>  9   350314507 2019-01-29 15:44:08 Sub … <lis… Sub S… <list [9]>      
#> 10   350314047 2019-01-29 15:41:35 Demo  <lis… Small… <list [9]>      
#> # … with 145 more rows, and 2 more variables: id <int>, rating <int>
…
