Rectangling • tidyr
…
This time the elements of user are a list of repositories that belong to that user. These are observations, so should become new rows, so we use unnest_longer() rather than unnest_wider():

repos <- repos %>% unnest_longer(repo)
repos
#> # A tibble: 176 × 1
#>    repo             
#>    <list>           
#>  1 <named list [68]>
#>  2 <named list [68]>
#>  3 <named list [68]>
#>  4 <named list [68]>
#>  5 <named list [68]>
#>  6 <named list [68]>
#>  7 <named list [68]>
#>  8 <named list [68]>
#>  9 <named list [68]>
#> 10 <named list [68]>
#> # … with 166 more rows

Then we can use unnest_wider() or hoist():

repos %>% hoist(repo, 
  login = c("owner", "login"), 
  name = "name",
  homepage = "homepage",
  watchers = "watchers_count"
)
#> # A tibble: 176 × 5
#>    login       name        homepage watchers repo             
#>    <chr>       <chr>       <chr>       <int> <list>           
#>  1 gaborcsardi after        NA             5 <named list [65]>
#>  2 gaborcsardi argufy       NA            19 <named list [65]>
#>  3 gaborcsardi ask          NA             5 <named list [65]>
#>  4 gaborcsardi baseimports  NA             0 <named list [65]>
#>  5 gaborcsardi citest       NA             0 <named list [65]>
#>  6 gaborcsardi clisymbols  ""             18 <named list [65]>
#>  7 gaborcsardi cmaker       NA             0 <named list [65]>
#>  8 gaborcsardi cmark        NA             0 <named list [65]>
#>  9 gaborcsardi conditions   NA             0 <named list [65]>
#> 10 gaborcsardi crayon       NA            52 <named list [65]>
#> # … with 166 more rows

Note the use of c("owner", "login"): this allows us to reach two levels deep inside of a list. An alternative approach would be to pull out just owner and then put each element of it in a column:

repos %>% 
  hoist(repo, owner = "owner") %>% 
  unnest_wider(owner)
#> # A tibble: 176 × 18
#>    login           id avatar_url  gravatar_id url   html_url followers_url
#>    <chr>        <int> <chr>       <chr>       <chr> <chr>    <chr>        
#>  1 gaborcsardi 660288 https://av… ""          http… https:/… https://api.…
#>  2 gaborcsardi 660288 https://av… ""          http… https:/… https://api.…
#>  3 gaborcsardi 660288 https://av… ""          http… https:/… https://api.…
#>  4 gaborcsardi 660288 https://av… ""          http… https:/… https://api.…
#>  5 gaborcsardi 660288 https://av… ""          http… https:/… https://api.…
#>  6 gaborcsardi 660288 https://av… ""          http… https:/… https://api.…
#>  7 gaborcsardi 660288 https://av… ""          http… https:/… https://api.…
#>  8 gaborcsardi 660288 https://av… ""          http… https:/… https://api.…
#>  9 gaborcsardi 660288 https://av… ""          http… https:/… https://api.…
#> 10 gaborcsardi 660288 https://av… ""          http… https:/… https://api.…
#> # … with 166 more rows, and 11 more variables: following_url <chr>,
#> #   gists_url <chr>, starred_url <chr>, subscriptions_url <chr>,
#> #   organizations_url <chr>, repos_url <chr>, events_url <chr>,
#> #   received_events_url <chr>, type <chr>, site_admin <lgl>, repo <list>

Instead of looking at the list and carefully thinking about whether it needs to become rows or columns, you can use unnest_auto(). It uses a handful of heuristics to figure out whether unnest_longer() or unnest_wider() is appropriate, and tells you about its reasoning.

tibble(repo = gh_repos) %>% 
  unnest_auto(repo) %>% 
  unnest_auto(repo)
#> Using `unnest_longer(repo, indices_include = FALSE)`; no element has names
#> Using `unnest_wider(repo)`; elements have 68 names in common
#> # A tibble: 176 × 68
#>          id name  full_name owner private html_url description fork  url  
#>       <int> <chr> <chr>     <lis> <lgl>   <chr>    <chr>       <lgl> <chr>
#>  1 61160198 after gaborcsa… <nam… FALSE   https:/… Run Code i… FALSE http…
#>  2 40500181 argu… gaborcsa… <nam… FALSE   https:/… Declarativ… FALSE http…
#>  3 36442442 ask   gaborcsa… <nam… FALSE   https:/… Friendly C… FALSE http…
#>  4 34924886 base… gaborcsa… <nam… FALSE   https:/… Do we get … FALSE http…
#>  5 61620661 cite… gaborcsa… <nam… FALSE   https:/… Test R pac… TRUE  http…
#>  6 33907457 clis… gaborcsa… <nam… FALSE   https:/… Unicode sy… FALSE http…
#>  7 37236467 cmak… gaborcsa… <nam… FALSE   https:/… port of cm… TRUE  http…
#>  8 67959624 cmark gaborcsa… <nam… FALSE   https:/… CommonMark… TRUE  http…
#>  9 63152619 cond… gaborcsa… <nam… FALSE   https:/… NA          TRUE  http…
#> 10 24343686 cray… gaborcsa… <nam… FALSE   https:/… R package … FALSE http…
#> # … with 166 more rows, and 59 more variables: forks_url <chr>,
#> #   keys_url <chr>, collaborators_url <chr>, teams_url <chr>,
#> #   hooks_url <chr>, issue_events_url <chr>, events_url <chr>,
#> #   assignees_url <chr>, branches_url <chr>, tags_url <chr>,
#> #   blobs_url <chr>, git_tags_url <chr>, git_refs_url <chr>,
#> #   trees_url <chr>, statuses_url <chr>, languages_url <chr>,
#> #   stargazers_url <chr>, contributors_url <chr>, …

Game of Thrones characters

got_chars has a similar structure to gh_users: it’s a list of named lists, where each element of the inner list describes some attribute of a GoT character. We start in the same way, first by creating a data frame and then by unnesting each component into a column:

chars <- tibble(char = got_chars)
chars
#> # A tibble: 30 × 1
#>    char             
#>    <list>           
#>  1 <named list [18]>
#>  2 <named list [18]>
#>  3 <named list [18]>
#>  4 <named list [18]>
#>  5 <named list [18]>
#>  6 <named list [18]>
#>  7 <named list [18]>
#>  8 <named list [18]>
#>  9 <named list [18]>
#> 10 <named list [18]>
#> # … with 20 more rows

chars2 <- chars %>% unnest_wider(char)
chars2
#> # A tibble: 30 × 18
#>    url         id name   gender culture born   died   alive titles aliases
#>    <chr>    <int> <chr>  <chr>  <chr>   <chr>  <chr>  <lgl> <list> <list> 
#>  1 https:/…  1022 Theon… Male   "Ironb… "In 2… ""     TRUE  <chr … <chr […
#>  2 https:/…  1052 Tyrio… Male   ""      "In 2… ""     TRUE  <chr … <chr […
#>  3 https:/…  1074 Victa… Male   "Ironb… "In 2… ""     TRUE  <chr … <chr […
#>  4 https:/…  1109 Will   Male   ""      ""     "In 2… FALSE <chr … <chr […
#>  5 https:/…  1166 Areo … Male   "Norvo… "In 2… ""     TRUE  <chr … <chr […
#>  6 https:/…  1267 Chett  Male   ""      "At H… "In 2… FALSE <chr … <chr […
#>  7 https:/…  1295 Cress… Male   ""      "In 2… "In 2… FALSE <chr … <chr […
#>  8 https:/…   130 Arian… Female "Dorni… "In 2… ""     TRUE  <chr … <chr […
#>  9 https:/…  1303 Daene… Female "Valyr… "In 2… ""     TRUE  <chr … <chr […
#> 10 https:/…  1319 Davos… Male   "Weste… "In 2… ""     TRUE  <chr … <chr […
#> # … with 20 more rows, and 8 more variables: father <chr>, mother <chr>,
#> #   spouse <chr>, allegiances <list>, books <list>, povBooks <list>,
#> #   tvSeries <list>, playedBy <list>

This is more complex than gh_users because some component of char are themselves a list, giving us a collection of list-columns:

chars2 %>% select_if(is.list)
#> # A tibble: 30 × 7
#>    titles    aliases    allegiances books     povBooks  tvSeries  playedBy
#>    <list>    <list>     <list>      <list>    <list>    <list>    <list>  
#>  1 <chr [3]> <chr [4]>  <chr [1]>   <chr [3]> <chr [2]> <chr [6]> <chr [1…
#>  2 <chr [2]> <chr [11]> <chr [1]>   <chr [2]> <chr [4]> <chr [6]> <chr [1…
#>  3 <chr [2]> <chr [1]>  <chr [1]>   <chr [3]> <chr [2]> <chr [1]> <chr [1…
#>  4 <chr [1]> <chr [1]>  <NULL>      <chr [1]> <chr [1]> <chr [1]> <chr [1…
#>  5 <chr [1]> <chr [1]>  <chr [1]>   <chr [3]> <chr [2]> <chr [2]> <chr [1…
#>  6 <chr [1]> <chr [1]>  <NULL>      <chr [2]> <chr [1]> <chr [1]> <chr [1…
#>  7 <chr [1]> <chr [1]>  <NULL>      <chr [2]> <chr [1]> <chr [1]> <chr [1…
#>  8 <chr [1]> <chr [1]>  <chr [1]>   <chr [4]> <chr [1]> <chr [1]> <chr [1…
#>  9 <chr [5]> <chr [11]> <chr [1]>   <chr [1]> <chr [4]> <chr [6]> <chr [1…
#> 10 <chr [4]> <chr [5]>  <chr [2]>   <chr [1]> <chr [3]> <chr [5]> <chr [1…
#> # … with 20 more rows

What you do next will depend on the purposes of the analysis. Maybe you want a row for every book and TV series that the character appears in:

chars2 %>% 
  select(name, books, tvSeries) %>% 
  pivot_longer(c(books, tvSeries), names_to = "media", values_to = "value") %>% 
  unnest_longer(value)
#> # A tibble: 180 × 3
#>    name             media    value            
#>    <chr>            <chr>    <chr>            
#>  1 Theon Greyjoy    books    A Game of Thrones
#>  2 Theon Greyjoy    books    A Storm of Swords
#>  3 Theon Greyjoy    books    A Feast for Crows
#>  4 Theon Greyjoy    tvSeries Season 1         
#>  5 Theon Greyjoy    tvSeries Season 2         
#>  6 Theon Greyjoy    tvSeries Season 3         
#>  7 Theon Greyjoy    tvSeries Season 4         
#>  8 Theon Greyjoy    tvSeries Season 5         
#>  9 Theon Greyjoy    tvSeries Season 6         
#> 10 Tyrion Lannister books    A Feast for Crows
#> # … with 170 more rows

Or maybe you want to build a table that lets you match title to name:

chars2 %>% 
  select(name, title = titles) %>% 
  unnest_longer(title)
#> # A tibble: 60 × 2
#>    name              title                                                
#>    <chr>             <chr>                                                
#>  1 Theon Greyjoy     "Prince of Winterfell"                               
#>  2 Theon Greyjoy     "Captain of Sea Bitch"                               
#>  3 Theon Greyjoy     "Lord of the Iron Islands (by law of the green lands…
#>  4 Tyrion Lannister  "Acting Hand of the King (former)"                   
#>  5 Tyrion Lannister  "Master of Coin (former)"                            
#>  6 Victarion Greyjoy "Lord Captain of the Iron Fleet"                     
#>  7 Victarion Greyjoy "Master of the Iron Victory"                         
#>  8 Will              ""                                                   
#>  9 Areo Hotah        "Captain of the Guard at Sunspear"                   
#> 10 Chett             ""                                                   
#> # … with 50 more rows

(Note that the empty titles ("") are due to an infelicity in the input got_chars: ideally people without titles would have a title vector of length 0, not a title vector of length 1 containing an empty string.)

Again, we could rewrite using unnest_auto(). This is convenient for exploration, but I wouldn’t rely on it in the long term - unnest_auto() has the undesirable property that it will always succeed. That means if your data structure changes, unnest_auto() will continue to work, but might give very different output that causes cryptic failures from downstream functions.

tibble(char = got_chars) %>% 
  unnest_auto(char) %>% 
  select(name, title = titles) %>% 
  unnest_auto(title)
#> Using `unnest_wider(char)`; elements have 18 names in common
#> Using `unnest_longer(title, indices_include = FALSE)`; no element has names
#> # A tibble: 60 × 2
#>    name              title                                                
#>    <chr>             <chr>                                                
#>  1 Theon Greyjoy     "Prince of Winterfell"                               
#>  2 Theon Greyjoy     "Captain of Sea Bitch"                               
#>  3 Theon Greyjoy     "Lord of the Iron Islands (by law of the green lands…
#>  4 Tyrion Lannister  "Acting Hand of the King (former)"                   
#>  5 Tyrion Lannister  "Master of Coin (former)"                            
#>  6 Victarion Greyjoy "Lord Captain of the Iron Fleet"                     
#>  7 Victarion Greyjoy "Master of the Iron Victory"                         
#>  8 Will              ""                                                   
#>  9 Areo Hotah        "Captain of the Guard at Sunspear"                   
#> 10 Chett             ""                                                   
#> # … with 50 more rows
…
loc %>%
  hoist(json,
    lat = list("results", 1, "geometry", "location", "lat"),
    lng = list("results", 1, "geometry", "location", "lng")
  )

Sharla Gelfand’s discography

We’ll finish off with the most complex list, from Sharla Gelfand’s discography. We’ll start the usual way: putting the list into a single column data frame, and then widening so each component is a column. I also parse the date_added column into a real date-time1.

discs <- tibble(disc = discog) %>% 
  unnest_wider(disc) %>% 
  mutate(date_added = as.POSIXct(strptime(date_added, "%Y-%m-%dT%H:%M:%S"))) 
discs
#> # A tibble: 155 × 5
#>    instance_id date_added          basic_information       id rating
#>          <int> <dttm>              <list>               <int>  <int>
#>  1   354823933 2019-02-16 17:48:59 <named list [11]>  7496378      0
#>  2   354092601 2019-02-13 14:13:11 <named list [11]>  4490852      0
#>  3   354091476 2019-02-13 14:07:23 <named list [11]>  9827276      0
#>  4   351244906 2019-02-02 11:39:58 <named list [11]>  9769203      0
#>  5   351244801 2019-02-02 11:39:37 <named list [11]>  7237138      0
#>  6   351052065 2019-02-01 20:40:53 <named list [11]> 13117042      0
#>  7   350315345 2019-01-29 15:48:37 <named list [11]>  7113575      0
#>  8   350315103 2019-01-29 15:47:22 <named list [11]> 10540713      0
#>  9   350314507 2019-01-29 15:44:08 <named list [11]> 11260950      0
#> 10   350314047 2019-01-29 15:41:35 <named list [11]> 11726853      0
#> # … with 145 more rows
At this level, we see information about when each disc was added to Sharla’s discography, not any information about the disc itself. To do that we need to widen the basic_information column:

discs %>% unnest_wider(basic_information)
#> Error: Names must be unique.
#> ✖ These names are duplicated:
#>   * "id" at locations 7 and 14.
#> ℹ Use argument `names_repair` to specify repair strategy.

Unfortunately that fails because there’s an id column inside basic_information. We can quickly see what’s going on by setting names_repair = "unique":

discs %>% unnest_wider(basic_information, names_repair = "unique")
#> New names:
#> * id -> id...7
#> * id -> id...14
#> # A tibble: 155 × 15
#>    instance_id date_added          labels   year master_url artists id...7
#>          <int> <dttm>              <list>  <int> <chr>      <list>   <int>
#>  1   354823933 2019-02-16 17:48:59 <list …  2015 NA         <list … 7.50e6
#>  2   354092601 2019-02-13 14:13:11 <list …  2013 https://a… <list … 4.49e6
#>  3   354091476 2019-02-13 14:07:23 <list …  2017 https://a… <list … 9.83e6
#>  4   351244906 2019-02-02 11:39:58 <list …  2017 https://a… <list … 9.77e6
#>  5   351244801 2019-02-02 11:39:37 <list …  2015 https://a… <list … 7.24e6
#>  6   351052065 2019-02-01 20:40:53 <list …  2019 https://a… <list … 1.31e7
#>  7   350315345 2019-01-29 15:48:37 <list …  2014 https://a… <list … 7.11e6
#>  8   350315103 2019-01-29 15:47:22 <list …  2015 https://a… <list … 1.05e7
#>  9   350314507 2019-01-29 15:44:08 <list …  2017 https://a… <list … 1.13e7
#> 10   350314047 2019-01-29 15:41:35 <list …  2017 NA         <list … 1.17e7
#> # … with 145 more rows, and 8 more variables: thumb <chr>, title <chr>,
#> #   formats <list>, cover_image <chr>, resource_url <chr>,
#> #   master_id <int>, id...14 <int>, rating <int>

The problem is that basic_information repeats the id column that’s also stored at the top-level, so we can just drop that:

discs %>% 
  select(!id) %>% 
  unnest_wider(basic_information)
#> # A tibble: 155 × 14
#>    instance_id date_added          labels   year master_url artists     id
#>          <int> <dttm>              <list>  <int> <chr>      <list>   <int>
#>  1   354823933 2019-02-16 17:48:59 <list …  2015 NA         <list … 7.50e6
#>  2   354092601 2019-02-13 14:13:11 <list …  2013 https://a… <list … 4.49e6
#>  3   354091476 2019-02-13 14:07:23 <list …  2017 https://a… <list … 9.83e6
#>  4   351244906 2019-02-02 11:39:58 <list …  2017 https://a… <list … 9.77e6
#>  5   351244801 2019-02-02 11:39:37 <list …  2015 https://a… <list … 7.24e6
#>  6   351052065 2019-02-01 20:40:53 <list …  2019 https://a… <list … 1.31e7
#>  7   350315345 2019-01-29 15:48:37 <list …  2014 https://a… <list … 7.11e6
#>  8   350315103 2019-01-29 15:47:22 <list …  2015 https://a… <list … 1.05e7
#>  9   350314507 2019-01-29 15:44:08 <list …  2017 https://a… <list … 1.13e7
#> 10   350314047 2019-01-29 15:41:35 <list …  2017 NA         <list … 1.17e7
#> # … with 145 more rows, and 7 more variables: thumb <chr>, title <chr>,
#> #   formats <list>, cover_image <chr>, resource_url <chr>,
#> #   master_id <int>, rating <int>

Alternatively, we could use hoist():

discs %>% 
  hoist(basic_information,
    title = "title",
    year = "year",
    label = list("labels", 1, "name"),
    artist = list("artists", 1, "name")
  )
#> # A tibble: 155 × 9
#>    instance_id date_added          title        year label       artist   
#>          <int> <dttm>              <chr>       <int> <chr>       <chr>    
#>  1   354823933 2019-02-16 17:48:59 Demo         2015 Tobi Recor… Mollot   
#>  2   354092601 2019-02-13 14:13:11 Observant …  2013 La Vida Es… Una Bèst…
#>  3   354091476 2019-02-13 14:07:23 I            2017 La Vida Es… S.H.I.T.…
#>  4   351244906 2019-02-02 11:39:58 Oído Absol…  2017 La Vida Es… Rata Neg…
#>  5   351244801 2019-02-02 11:39:37 A Cat's Ca…  2015 Katorga Wo… Ivy (18) 
#>  6   351052065 2019-02-01 20:40:53 Tashme       2019 High Fashi… Tashme   
#>  7   350315345 2019-01-29 15:48:37 Demo         2014 Mind Contr… Desgraci…
#>  8   350315103 2019-01-29 15:47:22 Let The Mi…  2015 Not On Lab… Phantom …
#>  9   350314507 2019-01-29 15:44:08 Sub Space    2017 Not On Lab… Sub Spac…
#> 10   350314047 2019-01-29 15:41:35 Demo         2017 Prescience… Small Ma…
#> # … with 145 more rows, and 3 more variables: basic_information <list>,
#> #   id <int>, rating <int>

Here I quickly extract the name of the first label and artist by indexing deeply into the nested list.

A more systematic approach would be to create separate tables for artist and label:

discs %>% 
  hoist(basic_information, artist = "artists") %>% 
  select(disc_id = id, artist) %>% 
  unnest_longer(artist) %>% 
  unnest_wider(artist)
#> # A tibble: 167 × 8
#>     disc_id join  name       anv   tracks role  resource_url            id
#>       <int> <chr> <chr>      <chr> <chr>  <chr> <chr>                <int>
#>  1  7496378 ""    Mollot     ""    ""     ""    https://api.discog… 4.62e6
#>  2  4490852 ""    Una Bèsti… ""    ""     ""    https://api.discog… 3.19e6
#>  3  9827276 ""    S.H.I.T. … ""    ""     ""    https://api.discog… 2.77e6
#>  4  9769203 ""    Rata Negra ""    ""     ""    https://api.discog… 4.28e6
#>  5  7237138 ""    Ivy (18)   ""    ""     ""    https://api.discog… 3.60e6
#>  6 13117042 ""    Tashme     ""    ""     ""    https://api.discog… 5.21e6
#>  7  7113575 ""    Desgracia… ""    ""     ""    https://api.discog… 4.45e6
#>  8 10540713 ""    Phantom H… ""    ""     ""    https://api.discog… 4.27e6
#>  9 11260950 ""    Sub Space… ""    ""     ""    https://api.discog… 5.69e6
#> 10 11726853 ""    Small Man… ""    ""     ""    https://api.discog… 6.37e6
#> # … with 157 more rows

discs %>% 
  hoist(basic_information, format = "formats") %>% 
  select(disc_id = id, format) %>% 
  unnest_longer(format) %>% 
  unnest_wider(format) %>% 
  unnest_longer(descriptions)
#> # A tibble: 281 × 5
#>     disc_id descriptions text  name     qty  
#>       <int> <chr>        <chr> <chr>    <chr>
#>  1  7496378 "Numbered"   Black Cassette 1    
#>  2  4490852 "LP"         NA    Vinyl    1    
#>  3  9827276 "7\""        NA    Vinyl    1    
#>  4  9827276 "45 RPM"     NA    Vinyl    1    
#>  5  9827276 "EP"         NA    Vinyl    1    
#>  6  9769203 "LP"         NA    Vinyl    1    
#>  7  9769203 "Album"      NA    Vinyl    1    
#>  8  7237138 "7\""        NA    Vinyl    1    
#>  9  7237138 "45 RPM"     NA    Vinyl    1    
#> 10 13117042 "7\""        NA    Vinyl    1    
#> # … with 271 more rows
…
