Gather columns into key-value pairs. — gather • tidyr
…
    Examples

library(dplyr)
# From http://stackoverflow.com/questions/1181060
stocks <- tibble(
  time = as.Date('2009-01-01') + 0:9,
  X = rnorm(10, 0, 1),
  Y = rnorm(10, 0, 2),
  Z = rnorm(10, 0, 4)
)

gather(stocks, stock, price, -time)
#> # A tibble: 30 x 3
#>    time       stock   price
#>    <date>     <chr>   <dbl>
#>  1 2009-01-01 X     -1.63  
#>  2 2009-01-02 X      0.512 
#>  3 2009-01-03 X     -1.86  
#>  4 2009-01-04 X     -0.522 
#>  5 2009-01-05 X     -0.0526
#>  6 2009-01-06 X      0.543 
#>  7 2009-01-07 X     -0.914 
#>  8 2009-01-08 X      0.468 
#>  9 2009-01-09 X      0.363 
#> 10 2009-01-10 X     -1.30  
#> # ... with 20 more rows
stocks %>% gather(stock, price, -time)
#> # A tibble: 30 x 3
#>    time       stock   price
#>    <date>     <chr>   <dbl>
#>  1 2009-01-01 X     -1.63  
#>  2 2009-01-02 X      0.512 
#>  3 2009-01-03 X     -1.86  
#>  4 2009-01-04 X     -0.522 
#>  5 2009-01-05 X     -0.0526
#>  6 2009-01-06 X      0.543 
#>  7 2009-01-07 X     -0.914 
#>  8 2009-01-08 X      0.468 
#>  9 2009-01-09 X      0.363 
#> 10 2009-01-10 X     -1.30  
#> # ... with 20 more rows
…
