Create a tibble from all combinations of inputs — expand_grid • tidyr
…
    Examples

expand_grid(x = 1:3, y = 1:2)
#> # A tibble: 6 x 2
#>       x     y
#>   <int> <int>
#> 1     1     1
#> 2     1     2
#> 3     2     1
#> 4     2     2
#> 5     3     1
#> 6     3     2
expand_grid(l1 = letters, l2 = LETTERS)
#> # A tibble: 676 x 2
#>    l1    l2   
#>    <chr> <chr>
#>  1 a     A    
#>  2 a     B    
#>  3 a     C    
#>  4 a     D    
#>  5 a     E    
#>  6 a     F    
#>  7 a     G    
#>  8 a     H    
#>  9 a     I    
#> 10 a     J    
#> # … with 666 more rows
…
