Gather columns into key-value pairs — gather • tidyr
…
    Examples

library(dplyr)
# From https://stackoverflow.com/questions/1181060
stocks <- tibble(
  time = as.Date('2009-01-01') + 0:9,
  X = rnorm(10, 0, 1),
  Y = rnorm(10, 0, 2),
  Z = rnorm(10, 0, 4)
)

gather(stocks, "stock", "price", -time)
#> # A tibble: 30 × 3
#>    time       stock   price
#>    <date>     <chr>   <dbl>
#>  1 2009-01-01 X      1.79  
#>  2 2009-01-02 X     -0.0718
#>  3 2009-01-03 X     -0.810 
#>  4 2009-01-04 X     -1.22  
#>  5 2009-01-05 X      1.35  
#>  6 2009-01-06 X     -1.10  
#>  7 2009-01-07 X      1.34  
#>  8 2009-01-08 X     -1.84  
#>  9 2009-01-09 X      0.152 
#> 10 2009-01-10 X      1.31  
#> # … with 20 more rows
stocks %>% gather("stock", "price", -time)
#> # A tibble: 30 × 3
#>    time       stock   price
#>    <date>     <chr>   <dbl>
#>  1 2009-01-01 X      1.79  
#>  2 2009-01-02 X     -0.0718
#>  3 2009-01-03 X     -0.810 
#>  4 2009-01-04 X     -1.22  
#>  5 2009-01-05 X      1.35  
#>  6 2009-01-06 X     -1.10  
#>  7 2009-01-07 X      1.34  
#>  8 2009-01-08 X     -1.84  
#>  9 2009-01-09 X      0.152 
#> 10 2009-01-10 X      1.31  
#> # … with 20 more rows
…
