Pivot data from long to wide — pivot_wider • tidyr
…
Must be a data frame containing character .name and .value columns.

    Details

    pivot_wider() is an updated approach to spread(), designed to be both
simpler to use and to handle more use cases. We recomend you use
pivot_wider() for new code; spread() isn't going away but is no longer
under active development.

    Examples

# See vignette("pivot") for examples and explanation

fish_encounters
#> # A tibble: 114 x 3
#>    fish  station  seen
#>    <fct> <fct>   <int>
#>  1 4842  Release     1
#>  2 4842  I80_1       1
#>  3 4842  Lisbon      1
#>  4 4842  Rstr        1
#>  5 4842  Base_TD     1
#>  6 4842  BCE         1
#>  7 4842  BCW         1
#>  8 4842  BCE2        1
#>  9 4842  BCW2        1
#> 10 4842  MAE         1
#> # … with 104 more rows
…
# Generate column names from multiple variables
us_rent_income %>%
  pivot_wider(names_from = variable, values_from = c(estimate, moe))
#> # A tibble: 52 x 6
#>    GEOID NAME                 estimate_income estimate_rent moe_income moe_rent
#>    <chr> <chr>                          <dbl>         <dbl>      <dbl>    <dbl>
#>  1 01    Alabama                        24476           747        136        3
#>  2 02    Alaska                         32940          1200        508       13
#>  3 04    Arizona                        27517           972        148        4
#>  4 05    Arkansas                       23789           709        165        5
#>  5 06    California                     29454          1358        109        3
#>  6 08    Colorado                       32401          1125        109        5
#>  7 09    Connecticut                    35326          1123        195        5
#>  8 10    Delaware                       31560          1076        247       10
#>  9 11    District of Columbia           43198          1424        681       17
#> 10 12    Florida                        25952          1077         70        3
#> # … with 42 more rows

# Can perform aggregation with values_fn
warpbreaks <- as_tibble(warpbreaks[c("wool", "tension", "breaks")])
warpbreaks
#> # A tibble: 54 x 3
#>    wool  tension breaks
#>    <fct> <fct>    <dbl>
#>  1 A     L           26
#>  2 A     L           30
#>  3 A     L           54
#>  4 A     L           25
#>  5 A     L           70
#>  6 A     L           52
#>  7 A     L           51
#>  8 A     L           26
#>  9 A     L           67
#> 10 A     M           18
#> # … with 44 more rows
…
