Nest repeated values in a list-variable. — nest • tidyr
…
if (require("gapminder")) {
  gapminder %>%
    group_by(country, continent) %>%
    nest()

  gapminder %>%
    nest(-country, -continent)
}
#> # A tibble: 142 x 3
#>    country     continent data             
#>    <fct>       <fct>     <list>           
#>  1 Afghanistan Asia      <tibble [12 × 4]>
#>  2 Albania     Europe    <tibble [12 × 4]>
#>  3 Algeria     Africa    <tibble [12 × 4]>
#>  4 Angola      Africa    <tibble [12 × 4]>
#>  5 Argentina   Americas  <tibble [12 × 4]>
#>  6 Australia   Oceania   <tibble [12 × 4]>
#>  7 Austria     Europe    <tibble [12 × 4]>
#>  8 Bahrain     Asia      <tibble [12 × 4]>
#>  9 Bangladesh  Asia      <tibble [12 × 4]>
#> 10 Belgium     Europe    <tibble [12 × 4]>
#> # ... with 132 more rows
…
