Tidy data • tidyr
…
A single observational unit is stored in multiple tables.

Surprisingly, most messy datasets, including types of messiness not explicitly described above, can be tidied with a small set of tools: gathering, separating and spreading. The following sections illustrate each problem with a real dataset that I have encountered, and show how to tidy them.

Column headers are values, not variable names

A common type of messy dataset is tabular data designed for presentation, where variables form both the rows and columns, and column headers are values, not variable names. While I would call this arrangement messy, in some cases it can be extremely useful. It provides efficient storage for completely crossed designs, and it can lead to extremely efficient computation if desired operations can be expressed as matrix operations.

The following code shows a subset of a typical dataset of this form. This dataset explores the relationship between income and religion in the US. It comes from a report1 produced by the Pew Research Center, an American think-tank that collects data on attitudes to topics ranging from religion to the internet, and produces many reports that contain datasets in this format.

library(tibble)
pew <- as_tibble(read.csv("pew.csv", stringsAsFactors = FALSE, check.names = FALSE))
pew
#> # A tibble: 18 x 11
#>    religion `<$10k` `$10-20k` `$20-30k` `$30-40k` `$40-50k` `$50-75k`
#>    <chr>      <int>     <int>     <int>     <int>     <int>     <int>
#>  1 Agnostic      27        34        60        81        76       137
#>  2 Atheist       12        27        37        52        35        70
#>  3 Buddhist      27        21        30        34        33        58
#>  4 Catholic     418       617       732       670       638      1116
#>  5 Don’t k…      15        14        15        11        10        35
#>  6 Evangel…     575       869      1064       982       881      1486
#>  7 Hindu          1         9         7         9        11        34
#>  8 Histori…     228       244       236       238       197       223
#>  9 Jehovah…      20        27        24        24        21        30
#> 10 Jewish        19        19        25        25        30        95
#> # ... with 8 more rows, and 4 more variables: `$75-100k` <int>,
#> #   `$100-150k` <int>, `>150k` <int>, `Don't know/refused` <int>

This dataset has three variables, religion, income and frequency. To tidy it, we need to gather the non-variable columns into a two-column key-value pair. This action is often described as making a wide dataset long (or tall), but I’ll avoid those terms because they’re imprecise.

When gathering variables, we need to provide the name of the new key-value columns to create. The first argument, is the name of the key column, which is the name of the variable defined by the values of the column headings. In this case, it’s income. The second argument is the name of the value column, frequency. The third argument defines the columns to gather, here, every column except religion.

pew %>%
  gather(income, frequency, -religion)
#> # A tibble: 180 x 3
#>    religion                income frequency
#>    <chr>                   <chr>      <int>
#>  1 Agnostic                <$10k         27
#>  2 Atheist                 <$10k         12
#>  3 Buddhist                <$10k         27
#>  4 Catholic                <$10k        418
#>  5 Don’t know/refused      <$10k         15
#>  6 Evangelical Prot        <$10k        575
#>  7 Hindu                   <$10k          1
#>  8 Historically Black Prot <$10k        228
#>  9 Jehovah's Witness       <$10k         20
#> 10 Jewish                  <$10k         19
#> # ... with 170 more rows

This form is tidy because each column represents a variable and each row represents an observation, in this case a demographic unit corresponding to a combination of religion and income.

This format is also used to record regularly spaced observations over time. For example, the Billboard dataset shown below records the date a song first entered the billboard top 100. It has variables for artist, track, date.entered, rank and week. The rank in each week after it enters the top 100 is recorded in 75 columns, wk1 to wk75. This form of storage is not tidy, but it is useful for data entry. It reduces duplication since otherwise each song in each week would need its own row, and song metadata like title and artist would need to be repeated. This will be discussed in more depth in multiple types.

billboard <- as_tibble(read.csv("billboard.csv", stringsAsFactors = FALSE))
billboard
#> # A tibble: 317 x 81
#>     year artist track time  date.entered   wk1   wk2   wk3   wk4   wk5
#>    <int> <chr>  <chr> <chr> <chr>        <int> <int> <int> <int> <int>
#>  1  2000 2 Pac  Baby… 4:22  2000-02-26      87    82    72    77    87
#>  2  2000 2Ge+h… The … 3:15  2000-09-02      91    87    92    NA    NA
#>  3  2000 3 Doo… Kryp… 3:53  2000-04-08      81    70    68    67    66
#>  4  2000 3 Doo… Loser 4:24  2000-10-21      76    76    72    69    67
#>  5  2000 504 B… Wobb… 3:35  2000-04-15      57    34    25    17    17
#>  6  2000 98^0   Give… 3:24  2000-08-19      51    39    34    26    26
#>  7  2000 A*Tee… Danc… 3:44  2000-07-08      97    97    96    95   100
#>  8  2000 Aaliy… I Do… 4:15  2000-01-29      84    62    51    41    38
#>  9  2000 Aaliy… Try … 4:03  2000-03-18      59    53    38    28    21
#> 10  2000 Adams… Open… 5:30  2000-08-26      76    76    74    69    68
#> # ... with 307 more rows, and 71 more variables: wk6 <int>, wk7 <int>,
#> #   wk8 <int>, wk9 <int>, wk10 <int>, wk11 <int>, wk12 <int>, wk13 <int>,
#> #   wk14 <int>, wk15 <int>, wk16 <int>, wk17 <int>, wk18 <int>,
#> #   wk19 <int>, wk20 <int>, wk21 <int>, wk22 <int>, wk23 <int>,
#> #   wk24 <int>, wk25 <int>, wk26 <int>, wk27 <int>, wk28 <int>,
#> #   wk29 <int>, wk30 <int>, wk31 <int>, wk32 <int>, wk33 <int>,
#> #   wk34 <int>, wk35 <int>, wk36 <int>, wk37 <int>, wk38 <int>,
#> #   wk39 <int>, wk40 <int>, wk41 <int>, wk42 <int>, wk43 <int>,
#> #   wk44 <int>, wk45 <int>, wk46 <int>, wk47 <int>, wk48 <int>,
#> #   wk49 <int>, wk50 <int>, wk51 <int>, wk52 <int>, wk53 <int>,
#> #   wk54 <int>, wk55 <int>, wk56 <int>, wk57 <int>, wk58 <int>,
#> #   wk59 <int>, wk60 <int>, wk61 <int>, wk62 <int>, wk63 <int>,
#> #   wk64 <int>, wk65 <int>, wk66 <lgl>, wk67 <lgl>, wk68 <lgl>,
#> #   wk69 <lgl>, wk70 <lgl>, wk71 <lgl>, wk72 <lgl>, wk73 <lgl>,
#> #   wk74 <lgl>, wk75 <lgl>, wk76 <lgl>

To tidy this dataset, we first gather together all the wk columns. The column names give the week and the values are the ranks:

billboard2 <- billboard %>% 
  gather(week, rank, wk1:wk76, na.rm = TRUE)
billboard2
#> # A tibble: 5,307 x 7
#>     year artist        track                time  date.entered week   rank
#>  * <int> <chr>         <chr>                <chr> <chr>        <chr> <int>
#>  1  2000 2 Pac         Baby Don't Cry (Kee… 4:22  2000-02-26   wk1      87
#>  2  2000 2Ge+her       The Hardest Part Of… 3:15  2000-09-02   wk1      91
#>  3  2000 3 Doors Down  Kryptonite           3:53  2000-04-08   wk1      81
#>  4  2000 3 Doors Down  Loser                4:24  2000-10-21   wk1      76
#>  5  2000 504 Boyz      Wobble Wobble        3:35  2000-04-15   wk1      57
#>  6  2000 98^0          Give Me Just One Ni… 3:24  2000-08-19   wk1      51
#>  7  2000 A*Teens       Dancing Queen        3:44  2000-07-08   wk1      97
#>  8  2000 Aaliyah       I Don't Wanna        4:15  2000-01-29   wk1      84
#>  9  2000 Aaliyah       Try Again            4:03  2000-03-18   wk1      59
#> 10  2000 Adams, Yolan… Open My Heart        5:30  2000-08-26   wk1      76
#> # ... with 5,297 more rows

Here we use na.rm to drop any missing values from the gather columns. In this data, missing values represent weeks that the song wasn’t in the charts, so can be safely dropped.

In this case it’s also nice to do a little cleaning, converting the week variable to a number, and figuring out the date corresponding to each week on the charts:

billboard3 <- billboard2 %>%
  mutate(
    week = extract_numeric(week),
    date = as.Date(date.entered) + 7 * (week - 1)) %>%
  select(-date.entered)
#> extract_numeric() is deprecated: please use readr::parse_number() instead
billboard3
#> # A tibble: 5,307 x 7
#>     year artist         track                 time   week  rank date      
#>    <int> <chr>          <chr>                 <chr> <dbl> <int> <date>    
#>  1  2000 2 Pac          Baby Don't Cry (Keep… 4:22      1    87 2000-02-26
#>  2  2000 2Ge+her        The Hardest Part Of … 3:15      1    91 2000-09-02
#>  3  2000 3 Doors Down   Kryptonite            3:53      1    81 2000-04-08
#>  4  2000 3 Doors Down   Loser                 4:24      1    76 2000-10-21
#>  5  2000 504 Boyz       Wobble Wobble         3:35      1    57 2000-04-15
#>  6  2000 98^0           Give Me Just One Nig… 3:24      1    51 2000-08-19
#>  7  2000 A*Teens        Dancing Queen         3:44      1    97 2000-07-08
#>  8  2000 Aaliyah        I Don't Wanna         4:15      1    84 2000-01-29
#>  9  2000 Aaliyah        Try Again             4:03      1    59 2000-03-18
#> 10  2000 Adams, Yolanda Open My Heart         5:30      1    76 2000-08-26
#> # ... with 5,297 more rows

Finally, it’s always a good idea to sort the data. We could do it by artist, track and week:

billboard3 %>% arrange(artist, track, week)
#> # A tibble: 5,307 x 7
#>     year artist  track                   time   week  rank date      
#>    <int> <chr>   <chr>                   <chr> <dbl> <int> <date>    
#>  1  2000 2 Pac   Baby Don't Cry (Keep... 4:22      1    87 2000-02-26
#>  2  2000 2 Pac   Baby Don't Cry (Keep... 4:22      2    82 2000-03-04
#>  3  2000 2 Pac   Baby Don't Cry (Keep... 4:22      3    72 2000-03-11
#>  4  2000 2 Pac   Baby Don't Cry (Keep... 4:22      4    77 2000-03-18
#>  5  2000 2 Pac   Baby Don't Cry (Keep... 4:22      5    87 2000-03-25
#>  6  2000 2 Pac   Baby Don't Cry (Keep... 4:22      6    94 2000-04-01
#>  7  2000 2 Pac   Baby Don't Cry (Keep... 4:22      7    99 2000-04-08
#>  8  2000 2Ge+her The Hardest Part Of ... 3:15      1    91 2000-09-02
#>  9  2000 2Ge+her The Hardest Part Of ... 3:15      2    87 2000-09-09
#> 10  2000 2Ge+her The Hardest Part Of ... 3:15      3    92 2000-09-16
#> # ... with 5,297 more rows

Or by date and rank:

billboard3 %>% arrange(date, rank)
#> # A tibble: 5,307 x 7
#>     year artist   track  time   week  rank date      
#>    <int> <chr>    <chr>  <chr> <dbl> <int> <date>    
#>  1  2000 Lonestar Amazed 4:25      1    81 1999-06-05
#>  2  2000 Lonestar Amazed 4:25      2    54 1999-06-12
#>  3  2000 Lonestar Amazed 4:25      3    44 1999-06-19
#>  4  2000 Lonestar Amazed 4:25      4    39 1999-06-26
#>  5  2000 Lonestar Amazed 4:25      5    38 1999-07-03
#>  6  2000 Lonestar Amazed 4:25      6    33 1999-07-10
#>  7  2000 Lonestar Amazed 4:25      7    29 1999-07-17
#>  8  2000 Amber    Sexual 4:38      1    99 1999-07-17
#>  9  2000 Lonestar Amazed 4:25      8    29 1999-07-24
#> 10  2000 Amber    Sexual 4:38      2    99 1999-07-24
#> # ... with 5,297 more rows

Multiple variables stored in one column

After gathering columns, the key column is sometimes a combination of multiple underlying variable names. This happens in the tb (tuberculosis) dataset, shown below. This dataset comes from the World Health Organisation, and records the counts of confirmed tuberculosis cases by country, year, and demographic group. The demographic groups are broken down by sex (m, f) and age (0-14, 15-25, 25-34, 35-44, 45-54, 55-64, unknown).

tb <- as_tibble(read.csv("tb.csv", stringsAsFactors = FALSE))
tb
#> # A tibble: 5,769 x 22
#>    iso2   year   m04  m514  m014 m1524 m2534 m3544 m4554 m5564   m65    mu
#>    <chr> <int> <int> <int> <int> <int> <int> <int> <int> <int> <int> <int>
#>  1 AD     1989    NA    NA    NA    NA    NA    NA    NA    NA    NA    NA
#>  2 AD     1990    NA    NA    NA    NA    NA    NA    NA    NA    NA    NA
#>  3 AD     1991    NA    NA    NA    NA    NA    NA    NA    NA    NA    NA
#>  4 AD     1992    NA    NA    NA    NA    NA    NA    NA    NA    NA    NA
#>  5 AD     1993    NA    NA    NA    NA    NA    NA    NA    NA    NA    NA
#>  6 AD     1994    NA    NA    NA    NA    NA    NA    NA    NA    NA    NA
#>  7 AD     1996    NA    NA     0     0     0     4     1     0     0    NA
#>  8 AD     1997    NA    NA     0     0     1     2     2     1     6    NA
#>  9 AD     1998    NA    NA     0     0     0     1     0     0     0    NA
#> 10 AD     1999    NA    NA     0     0     0     1     1     0     0    NA
#> # ... with 5,759 more rows, and 10 more variables: f04 <int>, f514 <int>,
#> #   f014 <int>, f1524 <int>, f2534 <int>, f3544 <int>, f4554 <int>,
#> #   f5564 <int>, f65 <int>, fu <int>

First we gather up the non-variable columns:

tb2 <- tb %>% 
  gather(demo, n, -iso2, -year, na.rm = TRUE)
tb2
#> # A tibble: 35,750 x 4
#>    iso2   year demo      n
#>  * <chr> <int> <chr> <int>
#>  1 AD     2005 m04       0
#>  2 AD     2006 m04       0
#>  3 AD     2008 m04       0
#>  4 AE     2006 m04       0
#>  5 AE     2007 m04       0
#>  6 AE     2008 m04       0
#>  7 AG     2007 m04       0
#>  8 AL     2005 m04       0
#>  9 AL     2006 m04       1
#> 10 AL     2007 m04       0
#> # ... with 35,740 more rows

Column headers in this format are often separated by a non-alphanumeric character (e.g. ., -, _, :), or have a fixed width format, like in this dataset. separate() makes it easy to split a compound variables into individual variables. You can either pass it a regular expression to split on (the default is to split on non-alphanumeric columns), or a vector of character positions. In this case we want to split after the first character:

tb3 <- tb2 %>% 
  separate(demo, c("sex", "age"), 1)
tb3
#> # A tibble: 35,750 x 5
#>    iso2   year sex   age       n
#>  * <chr> <int> <chr> <chr> <int>
#>  1 AD     2005 m     04        0
#>  2 AD     2006 m     04        0
#>  3 AD     2008 m     04        0
#>  4 AE     2006 m     04        0
#>  5 AE     2007 m     04        0
#>  6 AE     2008 m     04        0
#>  7 AG     2007 m     04        0
#>  8 AL     2005 m     04        0
#>  9 AL     2006 m     04        1
#> 10 AL     2007 m     04        0
#> # ... with 35,740 more rows

Storing the values in this form resolves a problem in the original data. We want to compare rates, not counts, which means we need to know the population. In the original format, there is no easy way to add a population variable. It has to be stored in a separate table, which makes it hard to correctly match populations to counts. In tidy form, adding variables for population and rate is easy because they’re just additional columns.

Variables are stored in both rows and columns

The most complicated form of messy data occurs when variables are stored in both rows and columns. The code below loads daily weather data from the Global Historical Climatology Network for one weather station (MX17004) in Mexico for five months in 2010.

weather <- as_tibble(read.csv("weather.csv", stringsAsFactors = FALSE))
weather
#> # A tibble: 22 x 35
#>    id     year month element    d1    d2    d3    d4    d5    d6    d7
#>    <chr> <int> <int> <chr>   <dbl> <dbl> <dbl> <dbl> <dbl> <dbl> <dbl>
#>  1 MX17…  2010     1 tmax       NA  NA    NA      NA  NA      NA    NA
#>  2 MX17…  2010     1 tmin       NA  NA    NA      NA  NA      NA    NA
#>  3 MX17…  2010     2 tmax       NA  27.3  24.1    NA  NA      NA    NA
#>  4 MX17…  2010     2 tmin       NA  14.4  14.4    NA  NA      NA    NA
#>  5 MX17…  2010     3 tmax       NA  NA    NA      NA  32.1    NA    NA
#>  6 MX17…  2010     3 tmin       NA  NA    NA      NA  14.2    NA    NA
#>  7 MX17…  2010     4 tmax       NA  NA    NA      NA  NA      NA    NA
#>  8 MX17…  2010     4 tmin       NA  NA    NA      NA  NA      NA    NA
#>  9 MX17…  2010     5 tmax       NA  NA    NA      NA  NA      NA    NA
#> 10 MX17…  2010     5 tmin       NA  NA    NA      NA  NA      NA    NA
#> # ... with 12 more rows, and 24 more variables: d8 <dbl>, d9 <lgl>,
#> #   d10 <dbl>, d11 <dbl>, d12 <lgl>, d13 <dbl>, d14 <dbl>, d15 <dbl>,
#> #   d16 <dbl>, d17 <dbl>, d18 <lgl>, d19 <lgl>, d20 <lgl>, d21 <lgl>,
#> #   d22 <lgl>, d23 <dbl>, d24 <lgl>, d25 <dbl>, d26 <dbl>, d27 <dbl>,
#> #   d28 <dbl>, d29 <dbl>, d30 <dbl>, d31 <dbl>

It has variables in individual columns (id, year, month), spread across columns (day, d1-d31) and across rows (tmin, tmax) (minimum and maximum temperature). Months with fewer than 31 days have structural missing values for the last day(s) of the month.

To tidy this dataset we first gather the day columns:

weather2 <- weather %>%
  gather(day, value, d1:d31, na.rm = TRUE)
weather2
#> # A tibble: 66 x 6
#>    id       year month element day   value
#>  * <chr>   <int> <int> <chr>   <chr> <dbl>
#>  1 MX17004  2010    12 tmax    d1     29.9
#>  2 MX17004  2010    12 tmin    d1     13.8
#>  3 MX17004  2010     2 tmax    d2     27.3
#>  4 MX17004  2010     2 tmin    d2     14.4
#>  5 MX17004  2010    11 tmax    d2     31.3
#>  6 MX17004  2010    11 tmin    d2     16.3
#>  7 MX17004  2010     2 tmax    d3     24.1
#>  8 MX17004  2010     2 tmin    d3     14.4
#>  9 MX17004  2010     7 tmax    d3     28.6
#> 10 MX17004  2010     7 tmin    d3     17.5
#> # ... with 56 more rows

For presentation, I’ve dropped the missing values, making them implicit rather than explicit. This is ok because we know how many days are in each month and can easily reconstruct the explicit missing values.

We’ll also do a little cleaning:

weather3 <- weather2 %>% 
  mutate(day = extract_numeric(day)) %>%
  select(id, year, month, day, element, value) %>%
  arrange(id, year, month, day)
#> extract_numeric() is deprecated: please use readr::parse_number() instead
weather3
#> # A tibble: 66 x 6
#>    id       year month   day element value
#>    <chr>   <int> <int> <dbl> <chr>   <dbl>
#>  1 MX17004  2010     1    30 tmax     27.8
#>  2 MX17004  2010     1    30 tmin     14.5
#>  3 MX17004  2010     2     2 tmax     27.3
#>  4 MX17004  2010     2     2 tmin     14.4
#>  5 MX17004  2010     2     3 tmax     24.1
#>  6 MX17004  2010     2     3 tmin     14.4
#>  7 MX17004  2010     2    11 tmax     29.7
#>  8 MX17004  2010     2    11 tmin     13.4
#>  9 MX17004  2010     2    23 tmax     29.9
#> 10 MX17004  2010     2    23 tmin     10.7
#> # ... with 56 more rows

This dataset is mostly tidy, but the element column is not a variable; it stores the names of variables. (Not shown in this example are the other meteorological variables prcp (precipitation) and snow (snowfall)). Fixing this requires the spread operation. This performs the inverse of gathering by spreading the element and value columns back out into the columns:

weather3 %>% spread(element, value)
#> # A tibble: 33 x 6
#>    id       year month   day  tmax  tmin
#>    <chr>   <int> <int> <dbl> <dbl> <dbl>
#>  1 MX17004  2010     1    30  27.8  14.5
#>  2 MX17004  2010     2     2  27.3  14.4
#>  3 MX17004  2010     2     3  24.1  14.4
#>  4 MX17004  2010     2    11  29.7  13.4
#>  5 MX17004  2010     2    23  29.9  10.7
#>  6 MX17004  2010     3     5  32.1  14.2
#>  7 MX17004  2010     3    10  34.5  16.8
#>  8 MX17004  2010     3    16  31.1  17.6
#>  9 MX17004  2010     4    27  36.3  16.7
#> 10 MX17004  2010     5    27  33.2  18.2
#> # ... with 23 more rows
…
